{
  "type": [
    "component"
  ],
  "machine": "assembler",
  "recipes": [
    {
      "input": {
        "aluminum_ingot": 3,
        "copper_ingot": 2
      },
      "output": {
        "alclad_aluminum_sheet": 3
      },
      "crafting_time": 12,
      "clicks": 3
    }
  ]
}
