{
  "type": [
    "component"
  ],
  "machine": "assembler",
  "stack_size": 100,
  "recipes": [
    {
      "input": {
        "steel_beam": 4,
        "concrete": 5
      },
      "output": {
        "encased_industrial_beam": 1
      },
      "crafting_time": 15,
      "clicks": 4,
      "stage": "development"
    }
  ]
}
