{
  "type": [
    "component"
  ],
  "machine": "manufacturer",
  "stack_size": 50,
  "recipes": [
    {
      "input": {
        "computer": 2,
        "ai_limiter": 2,
        "high_speed_connector": 3,
        "plastic": 21
      },
      "output": {
        "supercomputer": 1
      },
      "crafting_time": 32,
      "clicks": 8,
      "requires": "advanced_caterium_electronics"
    }
  ]
}
